[{
        "id": 1,
        "text": "Registrations",
        "children": [{
                "text": "view all registrations",
                "perm_checked": 0,
                "perm_id": 2
            }, {
                "text": "View Registration Detail",
                "perm_checked": 0,
                "perm_id": 3
            }, {
                "text": "Verify Registrations",
                "perm_checked": 0,
                "perm_id": 49
            }, {
                "text": "Audit Registrations",
                "perm_checked": 0,
                "perm_id": 50
            }, {
                "text": "Compliance Page",
                "perm_checked": 0,
                "perm_id": 52
            }, {
                "text": "View Multiple Registrations Page",
                "perm_checked": 0,
                "perm_id": 51
            }]
    }, {
        "id": 1,
        "text": "Manage System Users",
        "children": [{
                "text": "Super Agents",
                "perm_checked": 0,
                "perm_id": 37
            }, {
                "text": "System Admins",
                "perm_checked": 0,
                "perm_id": 36
            }]
    }, {
        "id": 1,
        "text": "User Roles Department",
        "children": [{
                "text": "View User Departments Roles & Permission",
                "perm_checked": 0,
                "perm_id": 39
            }, {
                "text": "Edit User Departments Permissions",
                "perm_checked": 0,
                "perm_id": 40
            }]
    }, {
        "id": 1,
        "text": "Systems Configs",
        "children": [{
                "text": "Partner Networks",
                "perm_checked": 0,
                "perm_id": 27
            }, {
                "text": "End Points",
                "perm_checked": 0,
                "perm_id": 26
            }]
    }, {
        "id": 1,
        "text": "FAQ & Assists",
        "children": [{
                "text": "View FAQs",
                "perm_checked": 0,
                "perm_id": 42
            }, {
                "text": "Create New FAQ",
                "perm_checked": 0,
                "perm_id": 43
            }, {
                "text": "Edit FAQ",
                "perm_checked": 0,
                "perm_id": 44
            }, {
                "text": "Delete FAQ",
                "perm_checked": 0,
                "perm_id": 45
            }]
    }, {
        "id": 1,
        "text": "Report Generation",
        "children": [{
                "text": "Generate Report",
                "perm_checked": 0,
                "perm_id": 23
            }]
    },{
        "id": 1,
        "text": "Reports",
        "children": [{
                "text": "Active Inactive Report",
                "perm_checked": 0,
                "perm_id": 53
            },{
                "text": "Registration Journey",
                "perm_checked": 0,
                "perm_id": 54
            },{
                "text": "Audit Report",
                "perm_checked": 0,
                "perm_id": 55
            },{
                "text": "Verification Report",
                "perm_checked": 0,
                "perm_id": 56
            }]
    }, {
        "id": 1,
        "text": "App Configurations",
        "children": [{
                "text": "Dynamic Forms",
                "perm_checked": 0,
                "perm_id": 29
            }, {
                "text": "Login Configurations",
                "perm_checked": 0,
                "perm_id": 30
            }, {
                "text": "ID Configurations",
                "perm_checked": 0,
                "perm_id": 31
            }, {
                "text": "ID Verification",
                "perm_checked": 0,
                "perm_id": 48
            }, {
                "text": "Image Configurations",
                "perm_checked": 0,
                "perm_id": 32
            }, {
                "text": "Application Uploads",
                "perm_checked": 0,
                "perm_id": 33
            }, {
                "text": "Other",
                "perm_checked": 0,
                "perm_id": 34
            },
            {
                "text": "Operator Details",
                "perm_checked": 1,
                "perm_id": 46
            }]
    }, {
        "id": 1,
        "text": "Manage Agents",
        "children": [{
                "text": "Publish Message",
                "perm_checked": 0,
                "perm_id": 21
            }, {
                "text": "Generate Access Token",
                "perm_checked": 0,
                "perm_id": 20
            }, {
                "text": "Edit Agent Devices",
                "perm_checked": 0,
                "perm_id": 19
            }, {
                "text": "Add New Agent Device",
                "perm_checked": 0,
                "perm_id": 18
            }, {
                "text": "View Agent Devices",
                "perm_checked": 0,
                "perm_id": 17
            }, {
                "text": "Deactivate Agent",
                "perm_checked": 0,
                "perm_id": 16
            }, {
                "text": "Activate Agent",
                "perm_checked": 0,
                "perm_id": 15
            }, {
                "text": "View All Agents",
                "perm_checked": 0,
                "perm_id": 13
            }, {
                "text": "Create New Agent",
                "perm_checked": 0,
                "perm_id": 14
            }]
    }, {
        "id": 1,
        "text": "Manage Agents",
        "children": [{
                "text": "Create New Agent",
                "perm_checked": 0,
                "perm_id": 9
            }, {
                "text": "View All Agents",
                "perm_checked": 0,
                "perm_id": 8
            }, {
                "text": "Deactivate Agent",
                "perm_checked": 0,
                "perm_id": 11
            }, {
                "text": "Activate Agent",
                "perm_checked": 0,
                "perm_id": 10
            }]
    }, {
        "id": 1,
        "text": "Location Information",
        "children": [{
                "text": "View Agent Report",
                "perm_checked": 0,
                "perm_id": 6
            }, {
                "text": "View Registration Report",
                "perm_checked": 0,
                "perm_id": 5
            }]
    }]